{
    "items": [
        {... user resource ...},
        {... user resource ...}
    ],
    "_meta": {
        "page": 1,
        "per_page": 10,
        "total_pages": 20,
        "total_items": 195
    },
    "_links": {
        "self": "http://locahost:5000/api/users?page=1",
        "next": "http://locahost:5000/api/users?page=1",
        "prev": null
    }
}